{
  "project_info": {
    "project_number": "984484222684",
    "firebase_url": "https://student-note-072021-default-rtdb.firebaseio.com",
    "project_id": "student-note-072021",
    "storage_bucket": "student-note-072021.appspot.com"
  },
  "client": [
    {
      "client_info": {
        "mobilesdk_app_id": "1:984484222684:android:9c03ce1f62098666964619",
        "android_client_info": {
          "package_name": "com.leenguyen.studentnote"
        }
      },
      "oauth_client": [
        {
          "client_id": "984484222684-jpcsu1on75a884l9j1ng18t7tpjpuopu.apps.googleusercontent.com",
          "client_type": 3
        }
      ],
      "api_key": [
        {
          "current_key": "AIzaSyBWvru075hyf5uMWZVi5gpYnYerBWMFO3c"
        }
      ],
      "services": {
        "appinvite_service": {
          "other_platform_oauth_client": [
            {
              "client_id": "984484222684-jpcsu1on75a884l9j1ng18t7tpjpuopu.apps.googleusercontent.com",
              "client_type": 3
            }
          ]
        }
      }
    }
  ],
  "configuration_version": "1"
}